<?xml version="1.0" encoding="UTF-8" standalone="no"?>
<!-- Created with Inkscape (http://www.inkscape.org/) -->

<svg
   xmlns:dc="http://purl.org/dc/elements/1.1/"
   xmlns:cc="http://creativecommons.org/ns#"
   xmlns:rdf="http://www.w3.org/1999/02/22-rdf-syntax-ns#"
   xmlns:svg="http://www.w3.org/2000/svg"
   xmlns="http://www.w3.org/2000/svg"
   xmlns:sodipodi="http://sodipodi.sourceforge.net/DTD/sodipodi-0.dtd"
   xmlns:inkscape="http://www.inkscape.org/namespaces/inkscape"
   width="24mm"
   height="24mm"
   viewBox="0 0 24 24"
   version="1.1"
   id="svg8"
   inkscape:version="0.92.5 (2060ec1f9f, 2020-04-08)"
   sodipodi:docname="ic_dot.svg">
  <defs
     id="defs2" />
  <sodipodi:namedview
     id="base"
     pagecolor="#ffffff"
     bordercolor="#666666"
     borderopacity="1.0"
     inkscape:pageopacity="0.0"
     inkscape:pageshadow="2"
     inkscape:zoom="8"
     inkscape:cx="16.062496"
     inkscape:cy="45.830635"
     inkscape:document-units="mm"
     inkscape:current-layer="layer1"
     showgrid="false"
     inkscape:window-width="2511"
     inkscape:window-height="1376"
     inkscape:window-x="49"
     inkscape:window-y="27"
     inkscape:window-maximized="1" />
  <metadata
     id="metadata5">
    <rdf:RDF>
      <cc:Work
         rdf:about="">
        <dc:format>image/svg+xml</dc:format>
        <dc:type
           rdf:resource="http://purl.org/dc/dcmitype/StillImage" />
        <dc:title></dc:title>
      </cc:Work>
    </rdf:RDF>
  </metadata>
  <g
     inkscape:label="Layer 1"
     inkscape:groupmode="layer"
     id="layer1"
     transform="translate(0,-273)">
    <path
       style="fill:#445a61;fill-opacity:0.42028988;stroke:#a8f8f5;stroke-width:0;stroke-miterlimit:4;stroke-dasharray:none;stroke-opacity:1"
       id="path827"
       sodipodi:type="arc"
       sodipodi:cx="12.247025"
       sodipodi:cy="285.5192"
       sodipodi:rx="0.00011146253"
       sodipodi:ry="0.0074308617"
       sodipodi:start="0.016690444"
       sodipodi:end="0.013307193"
       d="m 12.247136,285.51932 a 1.1146253e-4,0.00743086 0 0 1 -1.13e-4,0.007 1.1146253e-4,0.00743086 0 0 1 -1.1e-4,-0.008 1.1146253e-4,0.00743086 0 0 1 1.13e-4,-0.007 1.1146253e-4,0.00743086 0 0 1 1.1e-4,0.008 l -1.11e-4,-9e-5 z" />
    <path
       style="fill:#000000;fill-opacity:0.47826089;stroke:#000000;stroke-width:0.80002648;stroke-miterlimit:4;stroke-dasharray:none;stroke-opacity:1"
       id="path833"
       sodipodi:type="arc"
       sodipodi:cx="12.000001"
       sodipodi:cy="285"
       sodipodi:rx="3.9228141"
       sodipodi:ry="3.9651716"
       sodipodi:start="0.016090558"
       sodipodi:end="0.013304069"
       d="m 15.922307,285.0638 a 3.9228141,3.9651716 0 0 1 -3.982691,3.9009 3.9228141,3.9651716 0 0 1 -3.8620055,-4.02298 3.9228141,3.9651716 0 0 1 3.9773105,-3.9065 3.9228141,3.9651716 0 0 1 3.867547,4.01753"
       sodipodi:open="true" />
  </g>
</svg>
